%YAML 1.1
%TAG !u! tag:unity3d.com,2011:
--- !u!114 &11400000
MonoBehaviour:
  m_ObjectHideFlags: 0
  m_CorrespondingSourceObject: {fileID: 0}
  m_PrefabInstance: {fileID: 0}
  m_PrefabAsset: {fileID: 0}
  m_GameObject: {fileID: 0}
  m_Enabled: 1
  m_EditorHideFlags: 0
  m_Script: {fileID: 11500000, guid: 3952eb326962cb341812325c0921dff5, type: 3}
  m_Name: 1herb
  m_EditorClassIdentifier: 
  icon: {fileID: 21300000, guid: d133f745265b4e5418aa567986305536, type: 3}
  name: Herb
  max: 20
  id: 1
  price: 15
